# Accel zero G,,
24.45000076,-107.6000061,-51.79999923
# Accel resolutions,,
0.40122699,0.13875532,0.08515625
# Mag offsets,,
-6.896,-5.431,-9.73
# Mag transformation matrix,,
1.191,-0.068,0.045
-0.108,1.18,0.033
-0.025,0.006,1.264
# Gyro zero rates,,
8.9499998,29.35000038,-94.25
# Gyro resolution (degree/step),,
0.00875,0.00875,0.00875
