# Accel zero G + extraneous data
-1.000001,2.000002,-3.000003, 11.11, 12.12
# Accel resolutions
4.000004,-5.000005, 6.000006
# Mag offsets
-7.000007, 8.000008,-9.000009
# Mag transformation matrix
11.0000011,-12.0000012, 13.0000013
21.0000021,-22.0000022, 23.0000023
31.0000031,-32.0000032, 33.0000033
# Gyro zero rates
34.0000034,-35.0000035, a36.0000036
# Gyro resolution (rad/step)
-37.0000037,38.0000038, -39.0000039