#a first comment line followed by header
string, float  ,double, int, unsigned int, long unsigned long, bool
# comment line followed by empty lines


aString, 1.23, 4.56, 7, 8, 9, 10, 0
another string,  1.23, 4.56, 7, 8, 9, 10, 1
# comment line followed by last line with blanks only
         