type,timestamp(ms),accel.raw X,accel.raw Y,accel.raw Z, gyro raw X,gyro raw Y,gyro raw Z,mag. (µT) X,mag. (µT) Y,mag. (µT) Z,GPS present (0/1),GPS Lat degrees,GPS Long degrees,GPS alt,Temp BMP,Pressure,Altitude,Temp Thermi,CO2_Voltage,calibratedAccelX,calibratedAccelY,calibratedAccelZ,calibratedGyroX,calibratedGyroY,calibratedGyroZ,calibratedMagX,calibratedMagY,calibratedMagZ,groundAHRS_AccelX,groundAHRS_AccelY,groundAHRS_AccelZ,groundAHRS_Roll,groundAHRS_Yaw,groundAHRS_Picth,ECEF_PosX,ECEF_PosY,ECEF_PosZ,Local_PosX,Local_PosY,Local_PosZ,KF_PosX,KF_PosY,KF_PosZ,FF_VelocityX,KF_VelocityY,KF_VelocityZ,Temp_Correc,AltGPS_Correc,CO2_Voltage_Cleaned,CO2_Concentration,imgCornerTL_Lat,imgCornerTR_Lat,imgCornerBL_Lat,imgCornerTR_Lat,imgCornerTL_Long,imgCornerTR_Long,imgCornerBR_Long,imgCornerTR_Long,,,,,,,,,,,,,
100,0,0,0,0,0,0,0,0,0,0,1,50.48472222,6.183055556,617.34,0,0,617.34,0,0,0,0,0,0,0,0,0,0,0,0,0,0,0,0,0,4043150.42398587,438016.91475573,4897747.63625534,0,0,0,0,0,0,0,0,0,0,0,0,0,0,0,0,0,0,0,0,0,0,0,0,0,0,0,0,0,0,0,0,0,0
100,0,0,0,0,0,0,0,0,0,0,1,50.48472222,6.183055556,627.34,0,0,627.34,0,0,0,0,0,0,0,0,0,0,0,0,0,0,0,0,0,4043156.74981184,438017.600067549,4897755.35080482,-2.75997891208135E-010,-2.11374251435359E-011,-10.0000000003,0,0,0,0,0,0,0,0,0,0,0,0,0,0,0,0,0,0,0,0,0,0,0,0,0,0,0,0,0,0,0
100,0,0,0,0,0,0,0,0,0,0,1,50.48472222,6.183055556,607.34,0,0,607.34,0,0,0,0,0,0,0,0,0,0,0,0,0,0,0,0,0,4043144.0981599,438016.22944391,4897739.92170587,-8.59863291680085E-011,2.88522539193536E-011,10,0,0,0,0,0,0,0,0,0,0,0,0,0,0,0,0,0,0,0,0,0,0,0,0,0,0,0,0,0,0,0
100,0,0,0,0,0,0,0,0,0,0,1,50.48,6.183055556,617.34,0,0,617.34,0,0,0,0,0,0,0,0,0,0,0,0,0,0,0,0,0,4043553.33105329,438060.563913465,4897413.35234532,-525.3428270946,2.99849034490762E-012,0.021648923,0,0,0,0,0,0,0,0,0,0,0,0,0,0,0,0,0,0,0,0,0,0,0,0,0,0,0,0,0,0,0
100,0,0,0,0,0,0,0,0,0,0,1,50.49,6.183055556,617.34,0,0,617.34,0,0,0,0,0,0,0,0,0,0,0,0,0,0,0,0,0,4042700.08288418,437968.126805921,4898121.20881176,587.1488960187,4.67537120130146E-012,0.0270425078,0,0,0,0,0,0,0,0,0,0,0,0,0,0,0,0,0,0,0,0,0,0,0,0,0,0,0,0,0,0,0
100,0,0,0,0,0,0,0,0,0,0,1,50.484,6.183055556,617.34,0,0,617.34,0,0,0,0,0,0,0,0,0,0,0,0,0,0,0,0,0,4043212.04670167,438023.590686384,4897696.51276004,-80.3463684606,3.5420555377641E-012,0.0005063857,0,0,0,0,0,0,0,0,0,0,0,0,0,0,0,0,0,0,0,0,0,0,0,0,0,0,0,0,0,0,0
100,0,0,0,0,0,0,0,0,0,0,1,50.485,6.183055556,617.34,0,0,617.34,0,0,0,0,0,0,0,0,0,0,0,0,0,0,0,0,0,4043126.72250615,438014.347042948,4897767.29914961,30.9027943834,1.96940241892207E-011,7.49101287134124E-005,0,0,0,0,0,0,0,0,0,0,0,0,0,0,0,0,0,0,0,0,0,0,0,0,0,0,0,0,0,0,0
100,0,0,0,0,0,0,0,0,0,0,1,50.48472222,6.18,617.34,0,0,617.34,0,0,0,0,0,0,0,0,0,0,0,0,0,0,0,0,0,4043173.77746503,437801.294891164,4897747.63625534,0.004461382,-216.8808681068,0.003679678,0,0,0,0,0,0,0,0,0,0,0,0,0,0,0,0,0,0,0,0,0,0,0,0,0,0,0,0,0,0,0
100,0,0,0,0,0,0,0,0,0,0,1,50.48472222,6.186,617.34,0,0,617.34,0,0,0,0,0,0,0,0,0,0,0,0,0,0,0,0,0,4043127.90885154,438224.692657759,4897747.63625534,0.0041428146,208.9942291463,0.0034169285,0,0,0,0,0,0,0,0,0,0,0,0,0,0,0,0,0,0,0,0,0,0,0,0,0,0,0,0,0,0,0
100,0,0,0,0,0,0,0,0,0,0,0,0,0,0,0,0,0,0,0,0,0,0,0,0,0,0,0,0,0,0,0,0,0,0,4043127.90885154,438224.692657759,4897747.63625534,0.0041428146,208.9942291463,0.0034169285,0,0,0,0,0,0,0,0,0,0,0,0,0,0,0,0,0,0,0,0,0,0,0,0,0,0,0,0,0,0,0
100,0,0,0,0,0,0,0,0,0,0,0,0,0,0,0,0,0,0,0,0,0,0,0,0,0,0,0,0,0,0,0,0,0,0,4043127.90885154,438224.692657759,4897747.63625534,0.0041428146,208.9942291463,0.0034169285,0,0,0,0,0,0,0,0,0,0,0,0,0,0,0,0,0,0,0,0,0,0,0,0,0,0,0,0,0,0,0
100,0,0,0,0,0,0,0,0,0,0,0,0,0,0,0,0,0,0,0,0,0,0,0,0,0,0,0,0,0,0,0,0,0,0,4043127.90885154,438224.692657759,4897747.63625534,0.0041428146,208.9942291463,0.0034169285,0,0,0,0,0,0,0,0,0,0,0,0,0,0,0,0,0,0,0,0,0,0,0,0,0,0,0,0,0,0,0
100,0,0,0,0,0,0,0,0,0,0,0,0,0,0,0,0,0,0,0,0,0,0,0,0,0,0,0,0,0,0,0,0,0,0,4043127.90885154,438224.692657759,4897747.63625534,0.0041428146,208.9942291463,0.0034169285,0,0,0,0,0,0,0,0,0,0,0,0,0,0,0,0,0,0,0,0,0,0,0,0,0,0,0,0,0,0,0
100,0,0,0,0,0,0,0,0,0,0,0,0,0,0,0,0,0,0,0,0,0,0,0,0,0,0,0,0,0,0,0,0,0,0,4043127.90885154,438224.692657759,4897747.63625534,0.0041428146,208.9942291463,0.0034169285,0,0,0,0,0,0,0,0,0,0,0,0,0,0,0,0,0,0,0,0,0,0,0,0,0,0,0,0,0,0,0
100,0,0,0,0,0,0,0,0,0,0,0,0,0,0,0,0,0,0,0,0,0,0,0,0,0,0,0,0,0,0,0,0,0,0,4043127.90885154,438224.692657759,4897747.63625534,0.0041428146,208.9942291463,0.0034169285,0,0,0,0,0,0,0,0,0,0,0,0,0,0,0,0,0,0,0,0,0,0,0,0,0,0,0,0,0,0,0
100,0,0,0,0,0,0,0,0,0,0,0,0,0,0,0,0,0,0,0,0,0,0,0,0,0,0,0,0,0,0,0,0,0,0,4043127.90885154,438224.692657759,4897747.63625534,0.0041428146,208.9942291463,0.0034169285,0,0,0,0,0,0,0,0,0,0,0,0,0,0,0,0,0,0,0,0,0,0,0,0,0,0,0,0,0,0,0
100,0,0,0,0,0,0,0,0,0,0,0,0,0,0,0,0,0,0,0,0,0,0,0,0,0,0,0,0,0,0,0,0,0,0,4043127.90885154,438224.692657759,4897747.63625534,0.0041428146,208.9942291463,0.0034169285,0,0,0,0,0,0,0,0,0,0,0,0,0,0,0,0,0,0,0,0,0,0,0,0,0,0,0,0,0,0,0
100,0,0,0,0,0,0,0,0,0,0,0,0,0,0,0,0,0,0,0,0,0,0,0,0,0,0,0,0,0,0,0,0,0,0,4043127.90885154,438224.692657759,4897747.63625534,0.0041428146,208.9942291463,0.0034169285,0,0,0,0,0,0,0,0,0,0,0,0,0,0,0,0,0,0,0,0,0,0,0,0,0,0,0,0,0,0,0
